<svg width="25" height="25" viewBox="0 0 25 25" fill="none" xmlns="http://www.w3.org/2000/svg">
<path fill-rule="evenodd" clip-rule="evenodd" d="M7.67305 14.1677H3.18584H2.97686C1.60801 14.1677 0.488281 15.2944 0.488281 16.6719V22.0046C0.488281 23.3821 1.60801 24.5088 2.97686 24.5088H22.0231C23.3906 24.5088 24.5117 23.3821 24.5117 22.0047V16.6719C24.5117 15.2945 23.3906 14.1678 22.0231 14.1678H21.8127H17.3256H12.4993H7.67305V14.1677Z" fill="url(#paint0_linear)"/>
<path fill-rule="evenodd" clip-rule="evenodd" d="M12.1976 0.495361C9.43916 0.577532 6.96162 1.78642 5.20386 3.67915C6.0606 4.15823 7.09033 4.55239 8.23916 4.83515C9.14434 2.28922 10.6405 0.594281 12.343 0.49541H12.1976V0.495361Z" fill="url(#paint1_linear)"/>
<path fill-rule="evenodd" clip-rule="evenodd" d="M12.3429 0.495361C10.6406 0.594232 9.14436 2.28922 8.23914 4.8351C9.53186 5.15406 10.9755 5.33092 12.4993 5.33092V0.495361H12.3429Z" fill="url(#paint2_linear)"/>
<path fill-rule="evenodd" clip-rule="evenodd" d="M12.4993 0.495361V5.33092C14.0231 5.33092 15.4681 5.15406 16.7608 4.8351C15.8542 2.28917 14.3581 0.594232 12.657 0.495361H12.4993Z" fill="url(#paint3_linear)"/>
<path fill-rule="evenodd" clip-rule="evenodd" d="M12.6571 0.495288C14.3581 0.594159 15.8543 2.28915 16.7609 4.83502C17.9097 4.55231 18.9381 4.15816 19.7962 3.67903C18.037 1.7863 15.561 0.57741 12.8025 0.495239H12.6571V0.495288Z" fill="url(#paint4_linear)"/>
<path fill-rule="evenodd" clip-rule="evenodd" d="M16.7609 4.83507C17.3366 6.45481 17.6743 8.41994 17.6743 10.5383H22.4854C22.4854 7.88654 21.4639 5.47431 19.7961 3.67908C18.938 4.1582 17.9096 4.55236 16.7609 4.83507V4.83507Z" fill="url(#paint5_linear)"/>
<path fill-rule="evenodd" clip-rule="evenodd" d="M12.4993 5.33091V10.5383H17.6743C17.6743 8.41995 17.3366 6.45483 16.7608 4.83508C15.4681 5.15404 14.0231 5.33091 12.4993 5.33091V5.33091Z" fill="url(#paint6_linear)"/>
<path fill-rule="evenodd" clip-rule="evenodd" d="M8.23911 4.83508C7.66196 6.45488 7.32422 8.42 7.32422 10.5384H12.4993V5.33091C10.9754 5.33091 9.53184 5.15404 8.23911 4.83508V4.83508Z" fill="url(#paint7_linear)"/>
<path fill-rule="evenodd" clip-rule="evenodd" d="M5.20391 3.67908C3.53608 5.47431 2.51465 7.88654 2.51465 10.5383H7.32427C7.32427 8.41994 7.66196 6.45481 8.23916 4.83507C7.09038 4.55231 6.06064 4.15815 5.20391 3.67908V3.67908Z" fill="url(#paint8_linear)"/>
<path fill-rule="evenodd" clip-rule="evenodd" d="M2.51453 10.5383C2.51453 11.8182 2.75256 13.0425 3.18582 14.1678H7.67297C7.4488 13.0425 7.32419 11.8182 7.32419 10.5383H2.51453Z" fill="url(#paint9_linear)"/>
<path fill-rule="evenodd" clip-rule="evenodd" d="M7.32422 10.5383C7.32422 11.8182 7.44878 13.0425 7.673 14.1678H12.4993V10.5383H7.32422Z" fill="url(#paint10_linear)"/>
<path fill-rule="evenodd" clip-rule="evenodd" d="M12.4993 10.5383V14.1678H17.3255C17.5511 13.0425 17.6743 11.8182 17.6743 10.5383H12.4993Z" fill="url(#paint11_linear)"/>
<path fill-rule="evenodd" clip-rule="evenodd" d="M17.6743 10.5383C17.6743 11.8182 17.5511 13.0425 17.3256 14.1678H21.8127C22.2459 13.0425 22.4854 11.8182 22.4854 10.5383H17.6743Z" fill="url(#paint12_linear)"/>
<path d="M22.4882 13.7134C22.8103 12.6884 22.9737 11.6234 22.9737 10.5383C22.9737 7.85093 21.98 5.31763 20.1686 3.36154C20.1619 3.35354 20.1546 3.34617 20.1475 3.33865C20.0683 3.25368 19.9882 3.1694 19.906 3.08669C17.9277 1.09622 15.2972 0 12.4993 0C9.50947 0 6.8085 1.26739 4.89849 3.29602C4.86211 3.32534 4.82939 3.36022 4.8019 3.40039C3.07993 5.27913 2.02627 7.78708 2.02627 10.5383C2.02627 11.625 2.18931 12.6901 2.5106 13.7136C1.08989 13.9395 0 15.1799 0 16.6719V22.0047C0 23.6563 1.33545 25 2.97686 25H10.3042C10.5738 25 10.7924 24.7801 10.7924 24.5088C10.7924 24.2376 10.5738 24.0177 10.3042 24.0177H2.97686C1.87388 24.0177 0.976562 23.1146 0.976562 22.0047V16.6719C0.976562 15.5619 1.87388 14.6589 2.97686 14.6589H7.67031C7.67104 14.6589 7.67178 14.659 7.67251 14.659C7.67314 14.659 7.67378 14.6589 7.67441 14.6589H17.3242C17.3249 14.6589 17.3255 14.659 17.3261 14.659C17.3269 14.659 17.3276 14.6589 17.3283 14.6589H21.8096C21.8106 14.6589 21.8117 14.6591 21.8127 14.6591C21.814 14.6591 21.8152 14.6589 21.8165 14.6589H22.0232C23.1262 14.6589 24.0235 15.562 24.0235 16.6719V22.0047C24.0235 23.1146 23.1262 24.0176 22.0232 24.0176H14.6903C14.4207 24.0176 14.202 24.2376 14.202 24.5088C14.202 24.78 14.4207 25 14.6903 25H22.0231C23.6646 25 25 23.6563 25 22.0047V16.6719C25 15.1795 23.9095 13.9388 22.4882 13.7134V13.7134ZM17.9113 13.6766C18.0525 12.8211 18.1349 11.9347 18.1567 11.0295H21.9844C21.9388 11.935 21.7668 12.8222 21.4714 13.6766H17.9113ZM12.9875 13.6766V11.0295H17.1795C17.1565 11.9375 17.0698 12.8245 16.9206 13.6766H12.9875ZM8.07847 13.6766C7.9291 12.8204 7.84224 11.9334 7.81919 11.0295H12.011V13.6766H8.07847ZM3.52729 13.6766C3.23257 12.8236 3.06094 11.9364 3.01553 11.0295H6.84199C6.86387 11.931 6.94639 12.8174 7.08784 13.6766H3.52729ZM5.31606 4.2944C6.01035 4.64774 6.78062 4.94366 7.60781 5.17819C7.148 6.64465 6.88389 8.30835 6.84199 10.0472H3.01523C3.12607 7.85447 3.97495 5.85457 5.31606 4.2944V4.2944ZM21.9848 10.0472H18.1566C18.1147 8.3084 17.8506 6.64474 17.3908 5.17829C18.2182 4.94371 18.9889 4.64779 19.6836 4.29445C21.025 5.85462 21.8739 7.85452 21.9848 10.0472V10.0472ZM12.011 4.83325C10.9352 4.80486 9.88276 4.68315 8.89727 4.478C9.01401 4.19386 9.13931 3.92048 9.27349 3.65997C10.0405 2.17083 10.9981 1.25933 12.0109 1.03654V4.83325H12.011ZM12.011 5.81591V10.0472H7.8187C7.8606 8.3833 8.11543 6.79941 8.55708 5.41493C9.64253 5.65034 10.8061 5.78689 12.011 5.81591V5.81591ZM12.9875 5.81591C14.1923 5.78689 15.3559 5.65034 16.4415 5.41493C16.8832 6.79941 17.1379 8.3833 17.1798 10.0472H12.9875V5.81591ZM12.9875 4.83325V1.03649C14.0004 1.25928 14.9581 2.17078 15.725 3.65992C15.8592 3.92043 15.9845 4.19381 16.1013 4.47795C15.1156 4.6831 14.0632 4.80486 12.9875 4.83325V4.83325ZM17.0612 4.24578C16.9178 3.88369 16.7615 3.53679 16.5922 3.20806C16.2312 2.50717 15.8255 1.91336 15.3859 1.43404C16.7365 1.86852 17.9564 2.59931 18.9702 3.5502C18.3888 3.8225 17.7469 4.05565 17.0612 4.24578V4.24578ZM8.4064 3.20806C8.23711 3.53679 8.08081 3.88364 7.93745 4.24573C7.25195 4.0556 6.61035 3.82245 6.02939 3.5502C7.04282 2.59946 8.26235 1.86871 9.6125 1.43423C9.17295 1.91356 8.76733 2.50732 8.4064 3.20806V3.20806Z" fill="white"/>
<path d="M5.90862 17.19V19.99L3.64836 16.899C3.52327 16.728 3.30325 16.6572 3.10276 16.7234C2.90232 16.7895 2.76672 16.9778 2.76672 17.19V21.4866C2.76672 21.7579 2.98538 21.9778 3.25501 21.9778C3.52463 21.9778 3.74329 21.7579 3.74329 21.4866V18.6867L6.00354 21.7777C6.09734 21.9059 6.2446 21.9779 6.39695 21.9779C6.44773 21.9779 6.49905 21.9698 6.54915 21.9533C6.74959 21.8871 6.88518 21.6989 6.88518 21.4866V17.19C6.88518 16.9188 6.66653 16.6989 6.3969 16.6989C6.12727 16.6989 5.90862 16.9188 5.90862 17.19V17.19Z" fill="white"/>
<path d="M10.6266 17.6812C10.8962 17.6812 11.1149 17.4612 11.1149 17.19C11.1149 16.9188 10.8962 16.6989 10.6266 16.6989H8.65015C8.38052 16.6989 8.16187 16.9188 8.16187 17.19V21.4866C8.16187 21.7578 8.38052 21.9778 8.65015 21.9778H10.6266C10.8962 21.9778 11.1149 21.7578 11.1149 21.4866C11.1149 21.2154 10.8962 20.9955 10.6266 20.9955H9.13843V19.8301H10.6266C10.8962 19.8301 11.1149 19.6102 11.1149 19.339C11.1149 19.0678 10.8962 18.8478 10.6266 18.8478H9.13843V17.6812H10.6266Z" fill="white"/>
<path d="M15.9885 21.8201C16.0828 21.9227 16.2135 21.9778 16.3471 21.9778C16.4068 21.9778 16.4672 21.9667 16.525 21.944C16.7122 21.8703 16.8353 21.6888 16.8353 21.4866V17.19C16.8353 16.9188 16.6166 16.6989 16.347 16.6989C16.0774 16.6989 15.8587 16.9188 15.8587 17.19V20.2322L14.9727 19.2687C14.9677 19.2633 14.963 19.2589 14.9585 19.2548C14.9542 19.2505 14.9503 19.2459 14.9458 19.2416C14.7479 19.0574 14.4389 19.0695 14.2558 19.2687L13.3696 20.2323V17.19C13.3696 16.9188 13.151 16.6989 12.8813 16.6989C12.6117 16.6989 12.3931 16.9188 12.3931 17.19V21.4866C12.3931 21.6887 12.5162 21.8703 12.7033 21.944C12.7612 21.9668 12.8215 21.9778 12.8813 21.9778C13.0148 21.9778 13.1456 21.9227 13.2398 21.8201L14.6143 20.3255L15.9885 21.8201Z" fill="white"/>
<path d="M20.6764 20.9955H18.6017C18.3321 20.9955 18.1134 21.2155 18.1134 21.4867C18.1134 21.7579 18.3321 21.9779 18.6017 21.9779H20.6764C21.5341 21.9779 22.2318 21.2758 22.2318 20.4129C22.2318 19.55 21.5341 18.8479 20.6764 18.8479H19.6688C19.3496 18.8479 19.09 18.5866 19.09 18.2653C19.09 17.9433 19.3496 17.6813 19.6688 17.6813H21.7435C22.0132 17.6813 22.2318 17.4614 22.2318 17.1901C22.2318 16.9189 22.0132 16.699 21.7435 16.699H19.6688C18.8112 16.699 18.1134 17.4016 18.1134 18.2653C18.1134 19.1282 18.8112 19.8303 19.6688 19.8303H20.6764C20.9956 19.8303 21.2552 20.0916 21.2552 20.4129C21.2552 20.7341 20.9956 20.9955 20.6764 20.9955Z" fill="white"/>
<path d="M12.4979 24.0177C12.2283 24.0177 12.0096 24.2376 12.0096 24.5089C12.0096 24.7801 12.2283 25 12.4979 25H12.4993C12.7689 25 12.9869 24.7801 12.9869 24.5089C12.9869 24.2376 12.7676 24.0177 12.4979 24.0177Z" fill="white"/>
<defs>
<linearGradient id="paint0_linear" x1="12.5" y1="14.1677" x2="12.5" y2="24.5088" gradientUnits="userSpaceOnUse">
<stop stop-color="#832161"/>
<stop offset="1" stop-color="#DA4167"/>
</linearGradient>
<linearGradient id="paint1_linear" x1="8.77341" y1="0.495361" x2="8.77341" y2="4.83515" gradientUnits="userSpaceOnUse">
<stop stop-color="#832161"/>
<stop offset="1" stop-color="#DA4167"/>
</linearGradient>
<linearGradient id="paint2_linear" x1="10.3692" y1="0.495361" x2="10.3692" y2="5.33092" gradientUnits="userSpaceOnUse">
<stop stop-color="#832161"/>
<stop offset="1" stop-color="#DA4167"/>
</linearGradient>
<linearGradient id="paint3_linear" x1="14.6301" y1="0.495361" x2="14.6301" y2="5.33092" gradientUnits="userSpaceOnUse">
<stop stop-color="#832161"/>
<stop offset="1" stop-color="#DA4167"/>
</linearGradient>
<linearGradient id="paint4_linear" x1="16.2267" y1="0.495239" x2="16.2267" y2="4.83502" gradientUnits="userSpaceOnUse">
<stop stop-color="#832161"/>
<stop offset="1" stop-color="#DA4167"/>
</linearGradient>
<linearGradient id="paint5_linear" x1="19.6231" y1="3.67908" x2="19.6231" y2="10.5383" gradientUnits="userSpaceOnUse">
<stop stop-color="#832161"/>
<stop offset="1" stop-color="#DA4167"/>
</linearGradient>
<linearGradient id="paint6_linear" x1="15.0868" y1="4.83508" x2="15.0868" y2="10.5383" gradientUnits="userSpaceOnUse">
<stop stop-color="#832161"/>
<stop offset="1" stop-color="#DA4167"/>
</linearGradient>
<linearGradient id="paint7_linear" x1="9.91174" y1="4.83508" x2="9.91174" y2="10.5384" gradientUnits="userSpaceOnUse">
<stop stop-color="#832161"/>
<stop offset="1" stop-color="#DA4167"/>
</linearGradient>
<linearGradient id="paint8_linear" x1="5.3769" y1="3.67908" x2="5.3769" y2="10.5383" gradientUnits="userSpaceOnUse">
<stop stop-color="#832161"/>
<stop offset="1" stop-color="#DA4167"/>
</linearGradient>
<linearGradient id="paint9_linear" x1="5.09375" y1="10.5383" x2="5.09375" y2="14.1678" gradientUnits="userSpaceOnUse">
<stop stop-color="#832161"/>
<stop offset="1" stop-color="#DA4167"/>
</linearGradient>
<linearGradient id="paint10_linear" x1="9.91174" y1="10.5383" x2="9.91174" y2="14.1678" gradientUnits="userSpaceOnUse">
<stop stop-color="#832161"/>
<stop offset="1" stop-color="#DA4167"/>
</linearGradient>
<linearGradient id="paint11_linear" x1="15.0868" y1="10.5383" x2="15.0868" y2="14.1678" gradientUnits="userSpaceOnUse">
<stop stop-color="#832161"/>
<stop offset="1" stop-color="#DA4167"/>
</linearGradient>
<linearGradient id="paint12_linear" x1="19.9055" y1="10.5383" x2="19.9055" y2="14.1678" gradientUnits="userSpaceOnUse">
<stop stop-color="#832161"/>
<stop offset="1" stop-color="#DA4167"/>
</linearGradient>
</defs>
</svg>
