<svg width="28" height="28" viewBox="0 0 28 28" fill="none" xmlns="http://www.w3.org/2000/svg">
<path d="M14.2648 18.309C14.0023 18.5729 13.8552 18.9302 13.8557 19.3025C13.8562 19.6748 14.0043 20.0317 14.2675 20.295C14.5308 20.5583 14.8877 20.7064 15.26 20.7069C15.6323 20.7074 15.9896 20.5602 16.2536 20.2977L21.5569 14.9944C21.8206 14.7307 21.9688 14.373 21.9688 14C21.9688 13.6271 21.8206 13.2694 21.5569 13.0057L16.2536 7.7024C15.9899 7.43868 15.6322 7.29053 15.2592 7.29053C14.8863 7.29053 14.5286 7.43868 14.2648 7.7024C14.0011 7.96613 13.853 8.32381 13.853 8.69677C13.853 9.06973 14.0011 9.42741 14.2648 9.69113L17.1675 12.5938H1.8125C1.43954 12.5938 1.08185 12.742 0.818131 13.0057C0.554408 13.2694 0.40625 13.6271 0.40625 14.0001C0.40625 14.373 0.554408 14.7307 0.818131 14.9944C1.08185 15.2581 1.43954 15.4063 1.8125 15.4063H17.1675L14.2648 18.309Z" fill="url(#paint0_linear)"/>
<path d="M25.25 0.40625H12.125C11.5034 0.40625 10.9073 0.65318 10.4677 1.09272C10.0282 1.53226 9.78125 2.1284 9.78125 2.75V4.625C9.78125 4.99796 9.92941 5.35565 10.1931 5.61937C10.4569 5.88309 10.8145 6.03125 11.1875 6.03125C11.5605 6.03125 11.9181 5.88309 12.1819 5.61937C12.4456 5.35565 12.5937 4.99796 12.5938 4.625V3.21875H24.7812V24.7812H12.5938V23.375C12.5937 23.002 12.4456 22.6444 12.1819 22.3806C11.9181 22.1169 11.5605 21.9688 11.1875 21.9688C10.8145 21.9688 10.4569 22.1169 10.1931 22.3806C9.92941 22.6444 9.78125 23.002 9.78125 23.375V25.25C9.78125 25.8716 10.0282 26.4677 10.4677 26.9073C10.9073 27.3468 11.5034 27.5938 12.125 27.5938H25.25C25.8716 27.5938 26.4677 27.3468 26.9073 26.9073C27.3468 26.4677 27.5938 25.8716 27.5938 25.25V2.75C27.5938 2.1284 27.3468 1.53226 26.9073 1.09272C26.4677 0.65318 25.8716 0.40625 25.25 0.40625V0.40625Z" fill="url(#paint1_linear)"/>
<defs>
<linearGradient id="paint0_linear" x1="11.1875" y1="7.29053" x2="11.1875" y2="20.7069" gradientUnits="userSpaceOnUse">
<stop stop-color="#832161"/>
<stop offset="1" stop-color="#DA4167"/>
</linearGradient>
<linearGradient id="paint1_linear" x1="18.6875" y1="0.40625" x2="18.6875" y2="27.5938" gradientUnits="userSpaceOnUse">
<stop stop-color="#832161"/>
<stop offset="1" stop-color="#DA4167"/>
</linearGradient>
</defs>
</svg>
