<svg width="30" height="30" viewBox="0 0 30 30" fill="none" xmlns="http://www.w3.org/2000/svg">
<rect width="30" height="30" fill="white"/>
<path fill-rule="evenodd" clip-rule="evenodd" d="M15.1782 23.9983C20.1564 23.9019 24.0748 19.8385 23.9989 14.86C23.9248 10.0007 19.9995 6.07527 15.1402 6.00109C10.1616 5.92503 6.09815 9.84346 6.00172 14.8217C5.9876 15.5525 6.06064 16.264 6.21119 16.9464C6.46603 18.1018 6.61754 19.2776 6.61754 20.4609V22.748C6.61754 23.0984 6.90158 23.3825 7.25202 23.3825H9.53914C10.7223 23.3825 11.8982 23.534 13.0536 23.7888C13.736 23.9393 14.4474 24.0124 15.1782 23.9983ZM15.1117 7.86594C11.1583 7.80554 7.94299 10.9082 7.86644 14.8577C7.85518 15.4405 7.91345 16.0052 8.03248 16.5447C8.31088 17.8069 8.4826 19.119 8.4826 20.4609V21.5174H9.53914C10.8809 21.5174 12.1931 21.6891 13.4553 21.9675C13.995 22.0866 14.5595 22.1448 15.1421 22.1336C19.0916 22.0571 22.1943 18.8419 22.1341 14.8885C22.0753 11.0368 18.9632 7.92474 15.1117 7.86594Z" fill="#832161"/>
<path fill-rule="evenodd" clip-rule="evenodd" d="M15 11C15.526 11 15.9524 11.4264 15.9524 11.9524V14.0476H18.0476C18.5736 14.0476 19 14.474 19 15C19 15.526 18.5736 15.9524 18.0476 15.9524H15.9524V18.0476C15.9524 18.5736 15.526 19 15 19C14.474 19 14.0476 18.5736 14.0476 18.0476V15.9524H11.9524C11.4264 15.9524 11 15.526 11 15C11 14.474 11.4264 14.0476 11.9524 14.0476H14.0476V11.9524C14.0476 11.4264 14.474 11 15 11Z" fill="#832161"/>
</svg>
