<svg width="30" height="30" viewBox="0 0 30 30" fill="none" xmlns="http://www.w3.org/2000/svg">
<rect width="30" height="30" fill="#DA4167"/>
<path fill-rule="evenodd" clip-rule="evenodd" d="M15 22.9167C19.3723 22.9167 22.9167 19.3723 22.9167 15C22.9167 10.6277 19.3723 7.08333 15 7.08333C10.6277 7.08333 7.08333 10.6277 7.08333 15C7.08333 19.3723 10.6277 22.9167 15 22.9167ZM15 25C20.5228 25 25 20.5228 25 15C25 9.47715 20.5228 5 15 5C9.47715 5 5 9.47715 5 15C5 20.5228 9.47715 25 15 25Z" fill="white"/>
<path fill-rule="evenodd" clip-rule="evenodd" d="M18.7211 11.2789C18.3491 10.907 17.7461 10.907 17.3742 11.2789L11.2789 17.3742C10.907 17.7461 10.907 18.3491 11.2789 18.7211C11.6509 19.093 12.2539 19.093 12.6258 18.7211L18.7211 12.6258C19.093 12.2539 19.093 11.6509 18.7211 11.2789Z" fill="white"/>
<path fill-rule="evenodd" clip-rule="evenodd" d="M11.2789 11.2789C11.6509 10.907 12.2539 10.907 12.6258 11.2789L18.7211 17.3742C19.093 17.7461 19.093 18.3491 18.7211 18.7211C18.3491 19.093 17.7461 19.093 17.3742 18.7211L11.2789 12.6258C10.907 12.2539 10.907 11.6509 11.2789 11.2789Z" fill="white"/>
</svg>
